[gd_scene load_steps=5 format=3 uid="uid://cyujhbahgifge"]

[ext_resource type="Script" path="res://player.gd" id="1_hq32w"]
[ext_resource type="Texture2D" uid="uid://c5o1uy2k3cmnv" path="res://assets/images/player.png" id="2_0o08g"]

[sub_resource type="RectangleShape2D" id="RectangleShape2D_pmpam"]
size = Vector2(14, 14)

[sub_resource type="RectangleShape2D" id="RectangleShape2D_7wbty"]
size = Vector2(16, 16)

[node name="player" type="CharacterBody2D"]
script = ExtResource("1_hq32w")
respawn_point = Vector2(0, 10)

[node name="CollisionShape2D" type="CollisionShape2D" parent="."]
shape = SubResource("RectangleShape2D_pmpam")

[node name="Camera2D" type="Camera2D" parent="."]
zoom = Vector2(4, 4)
position_smoothing_enabled = true

[node name="Timer" type="Timer" parent="."]

[node name="Player" type="Sprite2D" parent="."]
position = Vector2(-1.49012e-07, -1.49012e-07)
scale = Vector2(1.16667, 1.16667)
texture = ExtResource("2_0o08g")

[node name="player" type="Area2D" parent="."]

[node name="CollisionShape2D" type="CollisionShape2D" parent="player"]
shape = SubResource("RectangleShape2D_7wbty")

[connection signal="area_entered" from="player" to="." method="_on_area_2d_area_entered"]
[connection signal="area_entered" from="player" to="." method="_on_player_area_entered"]
[connection signal="body_entered" from="player" to="." method="_on_area_2d_body_entered"]
